ST 558 Data Science for Statisticians (R) - Reading Delimited Data
…
bike_details <- read_csv("https://www4.stat.ncsu.edu/~online/datasets/bikeDetails.csv")

Rows: 1061 Columns: 7
── Column specification ────────────────────────────────────────────────────────
Delimiter: ","
chr (3): name, seller_type, owner
dbl (4): selling_price, year, km_driven, ex_showroom_price

ℹ Use `spec()` to retrieve the full column specification for this data.
ℹ Specify the column types or set `show_col_types = FALSE` to quiet this message.

bike_details

# A tibble: 1,061 × 7
   name        selling_price  year seller_type owner km_driven ex_showroom_price
   <chr>               <dbl> <dbl> <chr>       <chr>     <dbl>             <dbl>
 1 Royal Enfi…        175000  2019 Individual  1st …       350                NA
 2 Honda Dio           45000  2017 Individual  1st …      5650                NA
 3 Royal Enfi…        150000  2018 Individual  1st …     12000            148114
 4 Yamaha Faz…         65000  2015 Individual  1st …     23000             89643
 5 Yamaha SZ …         20000  2011 Individual  2nd …     21000                NA
 6 Honda CB T…         18000  2010 Individual  1st …     60000             53857
 7 Honda CB H…         78500  2018 Individual  1st …     17000             87719
 8 Royal Enfi…        180000  2008 Individual  2nd …     39000                NA
 9 Hero Honda…         30000  2010 Individual  1st …     32000                NA
10 Bajaj Disc…         50000  2016 Individual  1st …     42000             60122
# ℹ 1,051 more rows
…
Rows: 2359 Columns: 6
── Column specification ────────────────────────────────────────────────────────
Delimiter: ">"
chr (3): Home, Away, HPUmpire
dbl (3): Year, Month, Day

ℹ Use `spec()` to retrieve the full column specification for this data.
ℹ Specify the column types or set `show_col_types = FALSE` to quiet this message.

ump_data

# A tibble: 2,359 × 6
    Year Month   Day Home  Away  HPUmpire        
   <dbl> <dbl> <dbl> <chr> <chr> <chr>           
 1  2012     4    12 MIN   LAA   D.J. Reyburn    
 2  2012     4    12 SD    ARI   Marty Foster    
 3  2012     4    12 WSH   CIN   Mike Everitt    
 4  2012     4    12 PHI   MIA   Jeff Nelson     
 5  2012     4    12 CHC   MIL   Fieldin Culbreth
 6  2012     4    12 LAD   PIT   Wally Bell      
 7  2012     4    12 TEX   SEA   Doug Eddings    
 8  2012     4    12 COL   SF    Ron Kulpa       
 9  2012     4    12 DET   TB    Mark Carlson    
10  2012     4    13 NYY   LAA   Mike DiMuro     
# ℹ 2,349 more rows
…
Under the help for the ymd() function, examples are given at the bottom of how to use the function. One example is

x <- c("09-01-01", "09-01-02", "09-01-03")
ymd(x)

[1] "2009-01-01" "2009-01-02" "2009-01-03"

Let’s write a quick loop to loop through our observations, create this type of character string, and output a date variable!

We’ll see a better way to do this once we get into dplyr but for now, let’s initialize column to store date in and give it a date value.

ump_data$date <- ymd("2012-01-01")
ump_data

# A tibble: 2,359 × 7
    Year Month   Day Home  Away  HPUmpire         date      
   <dbl> <dbl> <dbl> <chr> <chr> <chr>            <date>    
 1  2012     4    12 MIN   LAA   D.J. Reyburn     2012-01-01
 2  2012     4    12 SD    ARI   Marty Foster     2012-01-01
 3  2012     4    12 WSH   CIN   Mike Everitt     2012-01-01
 4  2012     4    12 PHI   MIA   Jeff Nelson      2012-01-01
 5  2012     4    12 CHC   MIL   Fieldin Culbreth 2012-01-01
 6  2012     4    12 LAD   PIT   Wally Bell       2012-01-01
 7  2012     4    12 TEX   SEA   Doug Eddings     2012-01-01
 8  2012     4    12 COL   SF    Ron Kulpa        2012-01-01
 9  2012     4    12 DET   TB    Mark Carlson     2012-01-01
10  2012     4    13 NYY   LAA   Mike DiMuro      2012-01-01
# ℹ 2,349 more rows

Now we’ll loop through, paste together the three columns, and parse the date (storing it appropriately).

for (i in 1:nrow(ump_data)){
  ump_data$date[i] <- ymd(paste(ump_data$Year[i],
                                ump_data$Month[i],
                                ump_data$Day[i], 
                                sep = "-"))
}
ump_data

# A tibble: 2,359 × 7
    Year Month   Day Home  Away  HPUmpire         date      
   <dbl> <dbl> <dbl> <chr> <chr> <chr>            <date>    
 1  2012     4    12 MIN   LAA   D.J. Reyburn     2012-04-12
 2  2012     4    12 SD    ARI   Marty Foster     2012-04-12
 3  2012     4    12 WSH   CIN   Mike Everitt     2012-04-12
 4  2012     4    12 PHI   MIA   Jeff Nelson      2012-04-12
 5  2012     4    12 CHC   MIL   Fieldin Culbreth 2012-04-12
 6  2012     4    12 LAD   PIT   Wally Bell       2012-04-12
 7  2012     4    12 TEX   SEA   Doug Eddings     2012-04-12
 8  2012     4    12 COL   SF    Ron Kulpa        2012-04-12
 9  2012     4    12 DET   TB    Mark Carlson     2012-04-12
10  2012     4    13 NYY   LAA   Mike DiMuro      2012-04-13
# ℹ 2,349 more rows

Great! Now we can subtract dates and do other useful things with date data. We’ll cover this kind of code shortly but we might want to know the days between being home plate umpire:

ump_data |>
  filter(HPUmpire == "Marty Foster") |>
  mutate(days_off = date - lag(date))

# A tibble: 34 × 8
    Year Month   Day Home  Away  HPUmpire     date       days_off
   <dbl> <dbl> <dbl> <chr> <chr> <chr>        <date>     <drtn>  
 1  2012     4    12 SD    ARI   Marty Foster 2012-04-12 NA days 
 2  2012     4    16 SF    PHI   Marty Foster 2012-04-16  4 days 
 3  2012     4    21 KC    TOR   Marty Foster 2012-04-21  5 days 
 4  2012     4    25 TB    LAA   Marty Foster 2012-04-25  4 days 
 5  2012     4    29 BAL   OAK   Marty Foster 2012-04-29  4 days 
 6  2012     5     4 CHC   LAD   Marty Foster 2012-05-04  5 days 
 7  2012     5     8 HOU   MIA   Marty Foster 2012-05-08  4 days 
 8  2012     5    13 CIN   WSH   Marty Foster 2012-05-13  5 days 
 9  2012     5    17 DET   MIN   Marty Foster 2012-05-17  4 days 
10  2012     5    21 MIL   SF    Marty Foster 2012-05-21  4 days 
# ℹ 24 more rows
…
