Reading Excel Data – ST 558 Data Science for Statisticians (R)
…
Store it in your R project folder, a datasets folder within there, or the folder with your .qmd file in it.

Let’s read it into R!

If the file exists in your .qmd file’s directory, we can read it in via:

library(readxl)

Warning: package 'readxl' was built under R version 4.1.3

dry_bean_data <- read_excel("data/Dry_Bean_Dataset.xlsx")
dry_bean_data

# A tibble: 13,611 x 17
    Area Perimeter MajorAxisLength MinorAxisLength AspectRatio Eccentricity
   <dbl>     <dbl>           <dbl>           <dbl>       <dbl>        <dbl>
 1 28395      610.            208.            174.        1.20        0.550
 2 28734      638.            201.            183.        1.10        0.412
 3 29380      624.            213.            176.        1.21        0.563
 4 30008      646.            211.            183.        1.15        0.499
 5 30140      620.            202.            190.        1.06        0.334
 6 30279      635.            213.            182.        1.17        0.520
 7 30477      670.            211.            184.        1.15        0.489
 8 30519      630.            213.            183.        1.17        0.514
 9 30685      636.            214.            183.        1.17        0.514
10 30834      632.            217.            181.        1.20        0.554
# i 13,601 more rows
# i 11 more variables: ConvexArea <dbl>, EquivDiameter <dbl>, Extent <dbl>,
#   Solidity <dbl>, Roundness <dbl>, Compactness <dbl>, ShapeFactor1 <dbl>,
#   ShapeFactor2 <dbl>, ShapeFactor3 <dbl>, ShapeFactor4 <dbl>, Class <chr>
…
Citation Request :
KOKLU, M. and OZKAN, I.A., (2020), “Multiclass Classification of Dry Beans Using Computer Vision and Machine Learning Techniques.” Computers and Electronics in Agriculture, 174, 105507. DOI: https://doi.org/10.1016/j.compag.2020.105507

Reading Only Specific Cells

Occasionally, we might want to read only some cells on a particular sheet. This can be done by specifying the range argument!

Cells must be in a contiguous range

dry_bean_range <- read_excel("data/Dry_Bean_Dataset.xlsx", 
                   range = cell_cols("A:B")
                   )
dry_bean_range

# A tibble: 13,611 x 2
    Area Perimeter
   <dbl>     <dbl>
 1 28395      610.
 2 28734      638.
 3 29380      624.
 4 30008      646.
 5 30140      620.
 6 30279      635.
 7 30477      670.
 8 30519      630.
 9 30685      636.
10 30834      632.
# i 13,601 more rows
…
