Manipulating Data with dplyr – ST 558 Data Science for Statisticians (R)
…
    filter, lag

The following objects are masked from 'package:base':

    intersect, setdiff, setequal, union

library(Lahman)

Warning: package 'Lahman' was built under R version 4.1.3

batting_tbl <- as_tibble(Batting)
batting_tbl

# A tibble: 108,789 x 22
   playerID  yearID stint teamID lgID      G    AB     R     H   X2B   X3B    HR
   <chr>      <int> <int> <fct>  <fct> <int> <int> <int> <int> <int> <int> <int>
 1 abercda01   1871     1 TRO    NA        1     4     0     0     0     0     0
 2 addybo01    1871     1 RC1    NA       25   118    30    32     6     0     0
 3 allisar01   1871     1 CL1    NA       29   137    28    40     4     5     0
 4 allisdo01   1871     1 WS3    NA       27   133    28    44    10     2     2
 5 ansonca01   1871     1 RC1    NA       25   120    29    39    11     3     0
 6 armstbo01   1871     1 FW1    NA       12    49     9    11     2     1     0
 7 barkeal01   1871     1 RC1    NA        1     4     0     1     0     0     0
 8 barnero01   1871     1 BS1    NA       31   157    66    63    10     9     0
 9 barrebi01   1871     1 FW1    NA        1     5     1     1     1     0     0
10 barrofr01   1871     1 BS1    NA       18    86    13    13     2     1     0
# i 108,779 more rows
# i 10 more variables: RBI <int>, SB <int>, CS <int>, BB <int>, SO <int>,
#   IBB <int>, HBP <int>, SH <int>, SF <int>, GIDP <int>
…
or rearrange the order of the observations (rows). The two functions from dplyr that help us here are

filter() - subset rows

arrange() - reorder rows

filter()

filter() generally takes a tibble as its first argument and then a logical vector as the next (of the same length as the number of rows):

Return observations where the number of games played is greater than 50 (the G column):

filter(batting_tbl, G > 50)

# A tibble: 40,168 x 22
   playerID  yearID stint teamID lgID      G    AB     R     H   X2B   X3B    HR
   <chr>      <int> <int> <fct>  <fct> <int> <int> <int> <int> <int> <int> <int>
 1 bechtge01   1872     1 NY2    NA       51   247    61    74    11     3     0
 2 cummica01   1872     1 NY2    NA       55   249    37    52     9     3     0
 3 eggleda01   1872     1 NY2    NA       56   290    94    97    20     0     0
 4 hallge01    1872     1 BL1    NA       53   250    69    84    17     6     1
 5 hatfijo01   1872     1 NY2    NA       56   288    76    93    15     2     1
 6 hicksna01   1872     1 NY2    NA       56   267    54    82    12     2     0
 7 mcmuljo01   1872     1 NY2    NA       54   236    47    60     6     1     0
 8 millsev01   1872     1 BL1    NA       55   266    55    79    14     2     0
 9 pikeli01    1872     1 BL1    NA       56   285    68    85    15     5     7
10 radcljo01   1872     1 BL1    NA       56   297    70    86    13     4     1
# i 40,158 more rows
# i 10 more variables: RBI <int>, SB <int>, CS <int>, BB <int>, SO <int>,
#   IBB <int>, HBP <int>, SH <int>, SF <int>, GIDP <int>

Notice the number of observations is far less now!

Of course, we’ll do many operations so let’s use chaining even in this simple case:

batting_tbl |>
  filter(G > 50)

# A tibble: 40,168 x 22
   playerID  yearID stint teamID lgID      G    AB     R     H   X2B   X3B    HR
   <chr>      <int> <int> <fct>  <fct> <int> <int> <int> <int> <int> <int> <int>
 1 bechtge01   1872     1 NY2    NA       51   247    61    74    11     3     0
 2 cummica01   1872     1 NY2    NA       55   249    37    52     9     3     0
 3 eggleda01   1872     1 NY2    NA       56   290    94    97    20     0     0
 4 hallge01    1872     1 BL1    NA       53   250    69    84    17     6     1
 5 hatfijo01   1872     1 NY2    NA       56   288    76    93    15     2     1
 6 hicksna01   1872     1 NY2    NA       56   267    54    82    12     2     0
 7 mcmuljo01   1872     1 NY2    NA       54   236    47    60     6     1     0
 8 millsev01   1872     1 BL1    NA       55   266    55    79    14     2     0
 9 pikeli01    1872     1 BL1    NA       56   285    68    85    15     5     7
10 radcljo01   1872     1 BL1    NA       56   297    70    86    13     4     1
# i 40,158 more rows
# i 10 more variables: RBI <int>, SB <int>, CS <int>, BB <int>, SO <int>,
#   IBB <int>, HBP <int>, SH <int>, SF <int>, GIDP <int>

If we want to return observations where than one condition is TRUE we can either pass additional arguments or use the compound logical operator & we discussed earlier.

Condition on those that played more than 50 games and played in 2018

batting_tbl |>
  filter(G > 50 & yearID == 2018)

# A tibble: 518 x 22
   playerID  yearID stint teamID lgID      G    AB     R     H   X2B   X3B    HR
   <chr>      <int> <int> <fct>  <fct> <int> <int> <int> <int> <int> <int> <int>
 1 abreujo02   2018     1 CHA    AL      128   499    68   132    36     1    22
 2 acunaro01   2018     1 ATL    NL      111   433    78   127    26     4    26
 3 adamewi01   2018     1 TBA    AL       85   288    43    80     7     0    10
 4 adamsma01   2018     1 WAS    NL       94   249    37    64     9     0    18
 5 adducji02   2018     1 DET    AL       59   176    19    47     8     2     3
 6 adriaeh01   2018     1 MIN    AL      114   335    42    84    23     1     6
 7 aguilje01   2018     1 MIL    NL      149   492    80   135    25     0    35
 8 ahmedni01   2018     1 ARI    NL      153   516    61   121    33     5    16
 9 albieoz01   2018     1 ATL    NL      158   639   105   167    40     5    24
10 alexasc01   2018     1 LAN    NL       73     5     0     0     0     0     0
# i 508 more rows
# i 10 more variables: RBI <int>, SB <int>, CS <int>, BB <int>, SO <int>,
#   IBB <int>, HBP <int>, SH <int>, SF <int>, GIDP <int>

#equivalently
batting_tbl |>
  filter(G > 50, yearID == 2018)

# A tibble: 518 x 22
   playerID  yearID stint teamID lgID      G    AB     R     H   X2B   X3B    HR
   <chr>      <int> <int> <fct>  <fct> <int> <int> <int> <int> <int> <int> <int>
 1 abreujo02   2018     1 CHA    AL      128   499    68   132    36     1    22
 2 acunaro01   2018     1 ATL    NL      111   433    78   127    26     4    26
 3 adamewi01   2018     1 TBA    AL       85   288    43    80     7     0    10
 4 adamsma01   2018     1 WAS    NL       94   249    37    64     9     0    18
 5 adducji02   2018     1 DET    AL       59   176    19    47     8     2     3
 6 adriaeh01   2018     1 MIN    AL      114   335    42    84    23     1     6
 7 aguilje01   2018     1 MIL    NL      149   492    80   135    25     0    35
 8 ahmedni01   2018     1 ARI    NL      153   516    61   121    33     5    16
 9 albieoz01   2018     1 ATL    NL      158   639   105   167    40     5    24
10 alexasc01   2018     1 LAN    NL       73     5     0     0     0     0     0
# i 508 more rows
# i 10 more variables: RBI <int>, SB <int>, CS <int>, BB <int>, SO <int>,
#   IBB <int>, HBP <int>, SH <int>, SF <int>, GIDP <int>

Often we want to check if a variable is in a specific group of values. We might think this is the way:

#wrong!
batting_tbl |>
  filter(G > 50, yearID == c(2018, 2019, 2020))

# A tibble: 408 x 22
   playerID  yearID stint teamID lgID      G    AB     R     H   X2B   X3B    HR
   <chr>      <int> <int> <fct>  <fct> <int> <int> <int> <int> <int> <int> <int>
 1 abreujo02   2018     1 CHA    AL      128   499    68   132    36     1    22
 2 adducji02   2018     1 DET    AL       59   176    19    47     8     2     3
 3 ahmedni01   2018     1 ARI    NL      153   516    61   121    33     5    16
 4 albieoz01   2018     1 ATL    NL      158   639   105   167    40     5    24
 5 alexasc01   2018     1 LAN    NL       73     5     0     0     0     0     0
 6 almoral01   2018     1 CHN    NL      152   444    62   127    24     1     5
 7 altheaa01   2018     1 PHI    NL      105   243    28    44    11     1     8
 8 alvarjo03   2018     1 TBA    AL       70     0     0     0     0     0     0
 9 anderbr06   2018     1 MIA    NL      156   590    87   161    34     4    11
10 anderju01   2018     1 LAA    AL       57     0     0     0     0     0     0
# i 398 more rows
# i 10 more variables: RBI <int>, SB <int>, CS <int>, BB <int>, SO <int>,
#   IBB <int>, HBP <int>, SH <int>, SF <int>, GIDP <int>

Here, R uses recycling on the vector and actually compares the 1st element to 2018, the 2nd to 2019, the third to 2020, the fourth to 2018, the fifth to 2019, …

Use %in% to choose any observations matching an element of a vector

batting_tbl |>
  filter(G > 50, yearID %in% c(2018, 2019, 2020))

# A tibble: 1,172 x 22
   playerID  yearID stint teamID lgID      G    AB     R     H   X2B   X3B    HR
   <chr>      <int> <int> <fct>  <fct> <int> <int> <int> <int> <int> <int> <int>
 1 abreujo02   2018     1 CHA    AL      128   499    68   132    36     1    22
 2 acunaro01   2018     1 ATL    NL      111   433    78   127    26     4    26
 3 adamewi01   2018     1 TBA    AL       85   288    43    80     7     0    10
 4 adamsma01   2018     1 WAS    NL       94   249    37    64     9     0    18
 5 adducji02   2018     1 DET    AL       59   176    19    47     8     2     3
 6 adriaeh01   2018     1 MIN    AL      114   335    42    84    23     1     6
 7 aguilje01   2018     1 MIL    NL      149   492    80   135    25     0    35
 8 ahmedni01   2018     1 ARI    NL      153   516    61   121    33     5    16
 9 albieoz01   2018     1 ATL    NL      158   639   105   167    40     5    24
10 alexasc01   2018     1 LAN    NL       73     5     0     0     0     0     0
# i 1,162 more rows
# i 10 more variables: RBI <int>, SB <int>, CS <int>, BB <int>, SO <int>,
#   IBB <int>, HBP <int>, SH <int>, SF <int>, GIDP <int>

If we want an or condition, we use the compound logical operator for that

Here, grab those with either games greater than 50 or those that played in 2018, 2019, or 2020 (or both)

batting_tbl |>
  filter(G > 50 | yearID %in% c(2018, 2019, 2020))

# A tibble: 43,460 x 22
   playerID  yearID stint teamID lgID      G    AB     R     H   X2B   X3B    HR
   <chr>      <int> <int> <fct>  <fct> <int> <int> <int> <int> <int> <int> <int>
 1 bechtge01   1872     1 NY2    NA       51   247    61    74    11     3     0
 2 cummica01   1872     1 NY2    NA       55   249    37    52     9     3     0
 3 eggleda01   1872     1 NY2    NA       56   290    94    97    20     0     0
 4 hallge01    1872     1 BL1    NA       53   250    69    84    17     6     1
 5 hatfijo01   1872     1 NY2    NA       56   288    76    93    15     2     1
 6 hicksna01   1872     1 NY2    NA       56   267    54    82    12     2     0
 7 mcmuljo01   1872     1 NY2    NA       54   236    47    60     6     1     0
 8 millsev01   1872     1 BL1    NA       55   266    55    79    14     2     0
 9 pikeli01    1872     1 BL1    NA       56   285    68    85    15     5     7
10 radcljo01   1872     1 BL1    NA       56   297    70    86    13     4     1
# i 43,450 more rows
# i 10 more variables: RBI <int>, SB <int>, CS <int>, BB <int>, SO <int>,
#   IBB <int>, HBP <int>, SH <int>, SF <int>, GIDP <int>

Again, note the change in the observation count!

arrange()

The other major observation (row) manipulation is to reorder the observations (rows). This is done through arrange() from dplyr (or sort() in BaseR)

Let’s take our result from above and reorder by teamID

batting_tbl |>
  filter(G > 50, yearID %in% c(2018, 2019, 2020)) |>
  arrange(teamID)

# A tibble: 1,172 x 22
   playerID  yearID stint teamID lgID      G    AB     R     H   X2B   X3B    HR
   <chr>      <int> <int> <fct>  <fct> <int> <int> <int> <int> <int> <int> <int>
 1 ahmedni01   2018     1 ARI    NL      153   516    61   121    33     5    16
 2 avilaal01   2018     1 ARI    NL       80   194    13    32     6     0     7
 3 boxbebr01   2018     1 ARI    NL       60     0     0     0     0     0     0
 4 bradlar01   2018     1 ARI    NL       76     0     0     0     0     0     0
 5 chafian01   2018     1 ARI    NL       77     0     0     0     0     0     0
 6 descada01   2018     1 ARI    NL      138   349    54    83    22     4    13
 7 dysonja01   2018     1 ARI    NL       67   206    29    39     4     2     2
 8 escobed01   2018     2 ARI    NL       54   198    30    53    11     0     8
 9 goldspa01   2018     1 ARI    NL      158   593    95   172    35     5    33
10 hiranyo01   2018     1 ARI    NL       75     1     0     0     0     0     0
# i 1,162 more rows
# i 10 more variables: RBI <int>, SB <int>, CS <int>, BB <int>, SO <int>,
#   IBB <int>, HBP <int>, SH <int>, SF <int>, GIDP <int>
Remember to read the pipe (|>) as ‘then’. Here we would say:

Take the batting tibble and then

filter the rows to only include those with games greater than 50 and those that played in 2018-2020 and then

arrange the rows by the team name

We can obtain a secondary arrangement by giving a second column

batting_tbl |>
  filter(G > 50, yearID %in% c(2018, 2019, 2020)) |>
  arrange(teamID, playerID)

# A tibble: 1,172 x 22
   playerID  yearID stint teamID lgID      G    AB     R     H   X2B   X3B    HR
   <chr>      <int> <int> <fct>  <fct> <int> <int> <int> <int> <int> <int> <int>
 1 ahmedni01   2018     1 ARI    NL      153   516    61   121    33     5    16
 2 ahmedni01   2019     1 ARI    NL      158   556    79   141    33     6    19
 3 ahmedni01   2020     1 ARI    NL       57   199    29    53    10     1     5
 4 andrima01   2019     1 ARI    NL       54     6     0     0     0     0     0
 5 avilaal01   2018     1 ARI    NL       80   194    13    32     6     0     7
 6 avilaal01   2019     1 ARI    NL       63   164    22    34     8     0     9
 7 boxbebr01   2018     1 ARI    NL       60     0     0     0     0     0     0
 8 bradlar01   2018     1 ARI    NL       76     0     0     0     0     0     0
 9 bradlar01   2019     1 ARI    NL       66     1     0     0     0     0     0
10 calhoko01   2020     1 ARI    NL       54   190    35    43     9     0    16
# i 1,162 more rows
# i 10 more variables: RBI <int>, SB <int>, CS <int>, BB <int>, SO <int>,
#   IBB <int>, HBP <int>, SH <int>, SF <int>, GIDP <int>

We can reorder descending on a variable

batting_tbl |>
  filter(G > 50, yearID %in% c(2018, 2019, 2020)) |>
  arrange(desc(teamID), playerID)

# A tibble: 1,172 x 22
   playerID  yearID stint teamID lgID      G    AB     R     H   X2B   X3B    HR
   <chr>      <int> <int> <fct>  <fct> <int> <int> <int> <int> <int> <int> <int>
 1 adamsma01   2018     1 WAS    NL       94   249    37    64     9     0    18
 2 adamsma01   2019     1 WAS    NL      111   310    42    70    14     0    20
 3 cabreas01   2020     1 WAS    NL       52   190    23    46     9     3     8
 4 difowi01    2018     1 WAS    NL      148   408    55    94    14     7     7
 5 doolise01   2019     1 WAS    NL       63     3     0     0     0     0     0
 6 doziebr01   2019     1 WAS    NL      135   416    54    99    20     0    20
 7 eatonad02   2018     1 WAS    NL       95   319    55    96    18     1     5
 8 eatonad02   2019     1 WAS    NL      151   566   103   158    25     7    15
 9 gomesya01   2019     1 WAS    NL       97   314    36    70    16     0    12
10 gracema02   2018     1 WAS    NL       56     3     0     1     0     0     0
# i 1,162 more rows
# i 10 more variables: RBI <int>, SB <int>, CS <int>, BB <int>, SO <int>,
#   IBB <int>, HBP <int>, SH <int>, SF <int>, GIDP <int>
…
When we want to look at pulling more than one column, select() is much better!

Suppose we just wanted to look at the playerID, teamID, and hits type variables: H, X2B X3B, and HR of the players in our subset

We can add in a select() function to our chain (thanks again coherent ecosystem!).

One way is to simply list the columns you want:

batting_tbl |>
  filter(G > 50, yearID %in% c(2018, 2019, 2020)) |>
  arrange(desc(teamID), playerID) |>
  select(playerID, teamID, H, X2B, X3B, HR)

# A tibble: 1,172 x 6
   playerID  teamID     H   X2B   X3B    HR
   <chr>     <fct>  <int> <int> <int> <int>
 1 adamsma01 WAS       64     9     0    18
 2 adamsma01 WAS       70    14     0    20
 3 cabreas01 WAS       46     9     3     8
 4 difowi01  WAS       94    14     7     7
 5 doolise01 WAS        0     0     0     0
 6 doziebr01 WAS       99    20     0    20
 7 eatonad02 WAS       96    18     1     5
 8 eatonad02 WAS      158    25     7    15
 9 gomesya01 WAS       70    16     0    12
10 gracema02 WAS        1     0     0     0
# i 1,162 more rows

Where we really gain here is the ability to use helper functions when selecting columns!

: to select all contiguous columns

batting_tbl |>
  filter(G > 50, yearID %in% c(2018, 2019, 2020)) |>
  arrange(desc(teamID), playerID) |>
  select(playerID, teamID, H:HR)

# A tibble: 1,172 x 6
   playerID  teamID     H   X2B   X3B    HR
   <chr>     <fct>  <int> <int> <int> <int>
 1 adamsma01 WAS       64     9     0    18
 2 adamsma01 WAS       70    14     0    20
 3 cabreas01 WAS       46     9     3     8
 4 difowi01  WAS       94    14     7     7
 5 doolise01 WAS        0     0     0     0
 6 doziebr01 WAS       99    20     0    20
 7 eatonad02 WAS       96    18     1     5
 8 eatonad02 WAS      158    25     7    15
 9 gomesya01 WAS       70    16     0    12
10 gracema02 WAS        1     0     0     0
# i 1,162 more rows

starts_with() and ends_with() are also really useful

batting_tbl |>
  filter(G > 50, yearID %in% c(2018, 2019, 2020)) |>
  arrange(desc(teamID), playerID) |>
  select(ends_with("ID"), G, AB, H:HR)

# A tibble: 1,172 x 10
   playerID  yearID teamID lgID      G    AB     H   X2B   X3B    HR
   <chr>      <int> <fct>  <fct> <int> <int> <int> <int> <int> <int>
 1 adamsma01   2018 WAS    NL       94   249    64     9     0    18
 2 adamsma01   2019 WAS    NL      111   310    70    14     0    20
 3 cabreas01   2020 WAS    NL       52   190    46     9     3     8
 4 difowi01    2018 WAS    NL      148   408    94    14     7     7
 5 doolise01   2019 WAS    NL       63     3     0     0     0     0
 6 doziebr01   2019 WAS    NL      135   416    99    20     0    20
 7 eatonad02   2018 WAS    NL       95   319    96    18     1     5
 8 eatonad02   2019 WAS    NL      151   566   158    25     7    15
 9 gomesya01   2019 WAS    NL       97   314    70    16     0    12
10 gracema02   2018 WAS    NL       56     3     1     0     0     0
# i 1,162 more rows

We can combine those two as well using & and | operators

batting_tbl |>
  filter(G > 50, yearID %in% c(2018, 2019, 2020)) |>
  arrange(desc(teamID), playerID) |>
  select(ends_with("ID") | starts_with("X"), G, AB, H, HR)

# A tibble: 1,172 x 10
   playerID  yearID teamID lgID    X2B   X3B     G    AB     H    HR
   <chr>      <int> <fct>  <fct> <int> <int> <int> <int> <int> <int>
 1 adamsma01   2018 WAS    NL        9     0    94   249    64    18
 2 adamsma01   2019 WAS    NL       14     0   111   310    70    20
 3 cabreas01   2020 WAS    NL        9     3    52   190    46     8
 4 difowi01    2018 WAS    NL       14     7   148   408    94     7
 5 doolise01   2019 WAS    NL        0     0    63     3     0     0
 6 doziebr01   2019 WAS    NL       20     0   135   416    99    20
 7 eatonad02   2018 WAS    NL       18     1    95   319    96     5
 8 eatonad02   2019 WAS    NL       25     7   151   566   158    15
 9 gomesya01   2019 WAS    NL       16     0    97   314    70    12
10 gracema02   2018 WAS    NL        0     0    56     3     1     0
# i 1,162 more rows
…
