ST 558 Data Science for Statisticians (R) - Databases and Basic SQL
…
Notice the number of rows isn’t actually calcuated here! This is called lazy evaluation. Until we store the result in an object or do some calculation that requires all of the rows, it won’t do the computation.

How dplry works with a database

It never pulls data intoR unless you explicitly ask for it

It delays doing any work until the last possible moment - it collects together everything you want to do and then sends it to the database in one step (you can add collect() if you want all the data anyway)

tbl(con, "Pitching") |>
  select(ends_with("ID")) |>
  filter(yearID == 2010) |>
  collect()

# A tibble: 684 × 4
   playerID  yearID teamID lgID 
   <chr>      <int> <chr>  <chr>
 1 aardsda01   2010 SEA    AL   
 2 abadfe01    2010 HOU    NL   
 3 accarje01   2010 TOR    AL   
 4 aceveal01   2010 NYA    AL   
 5 acostma01   2010 NYN    NL   
 6 adamsmi03   2010 SDN    NL   
 7 affelje01   2010 SFN    NL   
 8 albaljo01   2010 NYA    AL   
 9 alberma01   2010 BAL    AL   
10 ambrihe01   2010 CLE    AL   
# ℹ 674 more rows
…
