ST 558 Data Science for Statisticians (R) - Creating Contingency Tables
…
First, let’s read in the appendicitis data from the previous lecture.

library(tidyverse)
library(readxl)
app_data <- read_excel("data/app_data.xlsx", sheet = 1)
app_data <- app_data |>
  mutate(BMI = as.numeric(BMI),
         US_Number = as.character(US_Number),
         SexF = factor(Sex, levels = c("female", "male"), labels = c("Female", "Male")),
         DiagnosisF = as.factor(Diagnosis),
         SeverityF = as.factor(Severity))
app_data

# A tibble: 782 × 61
     Age   BMI Sex    Height Weight Length_of_Stay Management   Severity     
   <dbl> <dbl> <chr>   <dbl>  <dbl>          <dbl> <chr>        <chr>        
 1 12.7   16.9 female    148   37                3 conservative uncomplicated
 2 14.1   31.9 male      147   69.5              2 conservative uncomplicated
 3 14.1   23.3 female    163   62                4 conservative uncomplicated
 4 16.4   20.6 female    165   56                3 conservative uncomplicated
 5 11.1   16.9 female    163   45                3 conservative uncomplicated
 6 11.0   30.7 male      121   45                3 conservative uncomplicated
 7  8.98  19.4 female    140   38.5              3 conservative uncomplicated
 8  7.06  NA   female     NA   21.5              2 conservative uncomplicated
 9  7.9   15.7 male      131   26.7              3 conservative uncomplicated
10 14.3   14.9 male      174   45.5              3 conservative uncomplicated
# ℹ 772 more rows
# ℹ 53 more variables: Diagnosis_Presumptive <chr>, Diagnosis <chr>,
#   Alvarado_Score <dbl>, Paedriatic_Appendicitis_Score <dbl>,
#   Appendix_on_US <chr>, Appendix_Diameter <dbl>, Migratory_Pain <chr>,
#   Lower_Right_Abd_Pain <chr>, Contralateral_Rebound_Tenderness <chr>,
#   Coughing_Pain <chr>, Nausea <chr>, Loss_of_Appetite <chr>,
#   Body_Temperature <dbl>, WBC_Count <dbl>, Neutrophil_Percentage <dbl>, …
…
