ST 558 Data Science for Statisticians (R) - Prediction & Training/Test Sets
…
Example of Fitting and Evaluating Models

Consider our data set on motorcycle sale prices

library(tidyverse)
bike_data <- read_csv("https://www4.stat.ncsu.edu/~online/datasets/bikeDetails.csv")
bike_data <- bike_data |> 
  mutate(log_selling_price = log(selling_price), 
         log_km_driven = log(km_driven)) |>
  select(log_km_driven, log_selling_price, everything())
bike_data

# A tibble: 1,061 × 9
   log_km_driven log_selling_price name    selling_price  year seller_type owner
           <dbl>             <dbl> <chr>           <dbl> <dbl> <chr>       <chr>
 1          5.86             12.1  Royal …        175000  2019 Individual  1st …
 2          8.64             10.7  Honda …         45000  2017 Individual  1st …
 3          9.39             11.9  Royal …        150000  2018 Individual  1st …
 4         10.0              11.1  Yamaha…         65000  2015 Individual  1st …
 5          9.95              9.90 Yamaha…         20000  2011 Individual  2nd …
 6         11.0               9.80 Honda …         18000  2010 Individual  1st …
 7          9.74             11.3  Honda …         78500  2018 Individual  1st …
 8         10.6              12.1  Royal …        180000  2008 Individual  2nd …
 9         10.4              10.3  Hero H…         30000  2010 Individual  1st …
10         10.6              10.8  Bajaj …         50000  2016 Individual  1st …
# ℹ 1,051 more rows
# ℹ 2 more variables: km_driven <dbl>, ex_showroom_price <dbl>
…
Let’s split our bike_data into a training and test set.

Use initial_split() to create an initial object

Use training() and testing() on that object to create the two data sets (note the number of observations in each set below!)

library(tidymodels)
set.seed(10)
bike_split <- initial_split(bike_data, prop = 0.7)
bike_train <- training(bike_split)
bike_test <- testing(bike_split)
bike_train

# A tibble: 742 × 9
   log_km_driven log_selling_price name    selling_price  year seller_type owner
           <dbl>             <dbl> <chr>           <dbl> <dbl> <chr>       <chr>
 1         10.8              10.3  Bajaj …         30000  2012 Individual  1st …
 2          8.95             10.6  Honda …         40000  2015 Individual  1st …
 3          9.99              9.80 Bajaj …         18000  2005 Individual  1st …
 4         10.2              10.5  Hero H…         35000  2017 Individual  1st …
 5         10.8              11.4  Royal …         85000  2013 Individual  1st …
 6          9.88             10.3  Bajaj …         30000  2008 Individual  1st …
 7         10.5              10.5  Hero C…         35000  2014 Individual  1st …
 8          9.68              9.90 Bajaj …         20000  2009 Individual  1st …
 9         11.1              10.1  Hero H…         25000  2008 Individual  3rd …
10          8.94             12.2  Bajaj …        200000  2019 Individual  1st …
# ℹ 732 more rows
# ℹ 2 more variables: km_driven <dbl>, ex_showroom_price <dbl>

bike_test

# A tibble: 319 × 9
   log_km_driven log_selling_price name    selling_price  year seller_type owner
           <dbl>             <dbl> <chr>           <dbl> <dbl> <chr>       <chr>
 1          8.64             10.7  Honda …         45000  2017 Individual  1st …
 2          9.39             11.9  Royal …        150000  2018 Individual  1st …
 3          7.03             12.8  Yamaha…        365000  2019 Individual  1st …
 4          7.44             12.1  Jawa 42        185000  2020 Individual  1st …
 5         10.9              10.1  Suzuki…         25000  2012 Individual  1st …
 6         11.0               9.62 Hero P…         15000  2008 Individual  1st …
 7          7.60             12.1  Jawa S…        180000  2019 Individual  1st …
 8         10.1              10.6  Honda …         42000  2017 Individual  1st …
 9          9.21              9.95 Hero H…         21000  2009 Individual  1st …
10          9.95             10.7  Hero G…         45000  2018 Individual  1st …
# ℹ 309 more rows
# ℹ 2 more variables: km_driven <dbl>, ex_showroom_price <dbl>
…
Really, what we want to compare is how the models do on data they weren’t trained on.

We want to find this type of metric on the test set. That means we want to use the truth from the test set (yiy_i for the test set) and compare that to predictions made for that test set observation (ŷi\hat{y}_i).

Test Set RMSE=1ntest∑i=1ntest(yi−ŷi)2\mbox{Test Set RMSE} = \sqrt{\frac{1}{n_{test}}\sum_{i=1}^{n_{test}}(y_i-\hat{y}_i)^2}

To do this in R we need to tell predict() about the newdata being the test set (bike_test). As this is a data frame with columns for our predictors, we can just pass the entire data frame for ease and predict() uses appropriate/needed columns to find our predictions.

#look at a few observations and predictions
bike_test |>
  select(log_km_driven, log_selling_price) |>
  mutate(model_1_preds = predict(reg1, newdata = bike_test))

# A tibble: 319 × 3
   log_km_driven log_selling_price model_1_preds
           <dbl>             <dbl>         <dbl>
 1          8.64             10.7           11.0
 2          9.39             11.9           11.1
 3          7.03             12.8           11.2
 4          7.44             12.1           11.3
 5         10.9              10.1           10.5
 6         11.0               9.62          10.2
 7          7.60             12.1           11.2
 8         10.1              10.6           11.0
 9          9.21              9.95          10.3
10          9.95             10.7           11.1
# ℹ 309 more rows
…
