Cross-Validation – ST 558 Data Science for Statisticians (R)
…
CV without a Training/Test Set Split

Sometimes we don’t have a lot of data so we don’t want to split our data into a training and test set. In this setting, CV is often used by itself to select a final model.

Consider our data set about the selling price of motorcycles:

library(tidyverse)
bike_data <- read_csv("https://www4.stat.ncsu.edu/~online/datasets/bikeDetails.csv")
bike_data <- bike_data |>
  mutate(log_selling_price = log(selling_price),
         log_km_driven = log(km_driven)) |>
  select(log_km_driven, year, log_selling_price, everything())
bike_data

# A tibble: 1,061 x 9
   log_km_driven  year log_selling_price name    selling_price seller_type owner
           <dbl> <dbl>             <dbl> <chr>           <dbl> <chr>       <chr>
 1          5.86  2019             12.1  Royal ~        175000 Individual  1st ~
 2          8.64  2017             10.7  Honda ~         45000 Individual  1st ~
 3          9.39  2018             11.9  Royal ~        150000 Individual  1st ~
 4         10.0   2015             11.1  Yamaha~         65000 Individual  1st ~
 5          9.95  2011              9.90 Yamaha~         20000 Individual  2nd ~
 6         11.0   2010              9.80 Honda ~         18000 Individual  1st ~
 7          9.74  2018             11.3  Honda ~         78500 Individual  1st ~
 8         10.6   2008             12.1  Royal ~        180000 Individual  2nd ~
 9         10.4   2010             10.3  Hero H~         30000 Individual  1st ~
10         10.6   2016             10.8  Bajaj ~         50000 Individual  1st ~
# i 1,051 more rows
# i 2 more variables: km_driven <dbl>, ex_showroom_price <dbl>
…
#create a list to save our folds in
folds <- list()
#now cycle through our random indices vector and take the appropriate observations to each fold
for(i in 1:10){
  if (i < 10) {
    fold_index <- seq(from = (i-1)*size_fold +1, to = i*size_fold, by = 1)
    folds[[i]] <- bike_data[random_indices[fold_index], ]
  } else {
    fold_index <- seq(from = (i-1)*size_fold +1, to = length(random_indices), by = 1)
    folds[[i]] <- bike_data[random_indices[fold_index], ]
  }
}
folds[[1]]

# A tibble: 106 x 9
   log_km_driven  year log_selling_price name    selling_price seller_type owner
           <dbl> <dbl>             <dbl> <chr>           <dbl> <chr>       <chr>
 1         10.1   2014             10.3  Honda ~         30000 Individual  1st ~
 2          9.21  2016             10.2  Honda ~         28000 Individual  2nd ~
 3         11.5   2007              9.21 Hero H~         10000 Individual  1st ~
 4         10.7   2015             10.3  Honda ~         30000 Individual  2nd ~
 5          9.40  2014             11.6  Royal ~        110000 Individual  1st ~
 6         10.8   2009             10.1  Hero H~         25000 Individual  1st ~
 7          9.62  2018             10.5  Hero H~         35000 Individual  1st ~
 8         10.3   2016             11.2  Bajaj ~         70000 Individual  1st ~
 9          9.90  2015             10.8  Yamaha~         50000 Individual  1st ~
10          9.71  2017             11.8  KTM 25~        135000 Individual  1st ~
# i 96 more rows
# i 2 more variables: km_driven <dbl>, ex_showroom_price <dbl>

folds[[2]]

# A tibble: 106 x 9
   log_km_driven  year log_selling_price name    selling_price seller_type owner
           <dbl> <dbl>             <dbl> <chr>           <dbl> <chr>       <chr>
 1         10.7   2013             10.2  Bajaj ~         28000 Individual  1st ~
 2          9.21  2018             10.7  Honda ~         46000 Individual  1st ~
 3          9.68  2016             11.0  Suzuki~         60000 Individual  1st ~
 4          9.38  2017             11.6  Honda ~        110000 Individual  1st ~
 5          8.92  2018             11.1  Hero S~         65000 Individual  1st ~
 6          8.99  2018             11.4  Bajaj ~         87000 Individual  1st ~
 7         11.0   2010              9.90 Bajaj ~         20000 Individual  1st ~
 8         10.8   2010              9.90 Hero  ~         20000 Individual  1st ~
 9          9.85  2016             10.5  TVS Ju~         35000 Individual  1st ~
10         10.6   2017             11.0  Bajaj ~         60000 Individual  2nd ~
# i 96 more rows
# i 2 more variables: km_driven <dbl>, ex_showroom_price <dbl>
…
Now we can fit the data on nine of the folds and test on the tenth. Then switch which fold is left out and repeat the process. We’ll use MSE rather than RMSE as our metric for now.

#set the test fold number
test_number <- 10
#pull out the testing fold
test <- folds[[test_number]]
test

# A tibble: 107 x 9
   log_km_driven  year log_selling_price name    selling_price seller_type owner
           <dbl> <dbl>             <dbl> <chr>           <dbl> <chr>       <chr>
 1         10.3   2015              10.1 Honda ~         25000 Individual  1st ~
 2         10.4   2016              10.5 Hero H~         35000 Individual  1st ~
 3         10.1   2018              11.0 Yamaha~         60000 Individual  1st ~
 4         10.4   2013              10.6 Bajaj ~         40000 Individual  1st ~
 5          7.57  2017              12.0 Mahind~        165000 Individual  1st ~
 6          9.90  2019              11.4 TVS Ap~         90000 Individual  1st ~
 7          8.52  2017              11.1 Bajaj ~         65000 Individual  1st ~
 8          9.17  2018              11.5 TVS Ap~         95000 Individual  1st ~
 9          8.61  2016              10.5 Hero G~         38000 Dealer      1st ~
10         10.1   2015              10.7 Yamaha~         45000 Individual  1st ~
# i 97 more rows
# i 2 more variables: km_driven <dbl>, ex_showroom_price <dbl>
#remove the test fold from the list
folds[[test_number]] <- NULL
#note that folds is only length 9 now
length(folds)

[1] 9

Recall the purrr:reduce() function. This allows us to iteratively apply a function across an object. Here we’ll use reduce() with rbind() to combine the tibbles saved in the different folds.

#combine the other folds into train set
train <- purrr::reduce(folds, rbind)
#the other nine folds are now in train
train

# A tibble: 954 x 9
   log_km_driven  year log_selling_price name    selling_price seller_type owner
           <dbl> <dbl>             <dbl> <chr>           <dbl> <chr>       <chr>
 1         11.2   2012              10.7 Hero H~         45000 Individual  1st ~
 2         10.4   2014              10.5 Hero I~         35000 Individual  1st ~
 3          9.62  2017              11.8 Bajaj ~        138000 Individual  1st ~
 4          8.85  2017              11.9 Royal ~        150000 Individual  1st ~
 5         10.6   2010              10.5 Bajaj ~         35000 Individual  1st ~
 6          8.85  2018              11.2 Honda ~         70000 Individual  1st ~
 7          8.07  2019              11.4 Hero X~         87000 Individual  1st ~
 8          9.80  2017              11.2 Yamaha~         75000 Individual  1st ~
 9          9.85  2014              11.5 Honda ~        100000 Individual  1st ~
10          9.96  2018              11.3 Bajaj ~         80000 Individual  1st ~
# i 944 more rows
# i 2 more variables: km_driven <dbl>, ex_showroom_price <dbl>
…
