ST 558 Data Science for Statisticians (R) - LASSO Models
…
There were issues with some computations:

  - Warning(s) x10: A correlation computation is required, but `estimate` is constant...

Run `show_notes(.Last.tune.result)` for more information.

This may look like it only has one fit per fold but the list columns hide the fact that we actually have fit 200 separate LASSO models (one for each tuning parameter specified by grid_regular()). Notice this:

LASSO_grid[1, ".metrics"][[1]]

[[1]]
# A tibble: 400 × 5
    penalty .metric .estimator .estimate .config               
      <dbl> <chr>   <chr>          <dbl> <chr>                 
 1 1   e-10 rmse    standard       0.475 Preprocessor1_Model001
 2 1.12e-10 rmse    standard       0.475 Preprocessor1_Model002
 3 1.26e-10 rmse    standard       0.475 Preprocessor1_Model003
 4 1.41e-10 rmse    standard       0.475 Preprocessor1_Model004
 5 1.59e-10 rmse    standard       0.475 Preprocessor1_Model005
 6 1.78e-10 rmse    standard       0.475 Preprocessor1_Model006
 7 2.00e-10 rmse    standard       0.475 Preprocessor1_Model007
 8 2.25e-10 rmse    standard       0.475 Preprocessor1_Model008
 9 2.52e-10 rmse    standard       0.475 Preprocessor1_Model009
10 2.83e-10 rmse    standard       0.475 Preprocessor1_Model010
# ℹ 390 more rows

This is actually a tibble with 400 metrics (200 rmse values and 200 rsq values).

Of course, we want to have these metrics computed across the folds for each of our 200 values of the tuning parameter. We use collect_metrics() as before!

LASSO_grid |>
  collect_metrics() |>
  filter(.metric == "rmse")

# A tibble: 200 × 7
    penalty .metric .estimator  mean     n std_err .config               
      <dbl> <chr>   <chr>      <dbl> <int>   <dbl> <chr>                 
 1 1   e-10 rmse    standard   0.494    10  0.0199 Preprocessor1_Model001
 2 1.12e-10 rmse    standard   0.494    10  0.0199 Preprocessor1_Model002
 3 1.26e-10 rmse    standard   0.494    10  0.0199 Preprocessor1_Model003
 4 1.41e-10 rmse    standard   0.494    10  0.0199 Preprocessor1_Model004
 5 1.59e-10 rmse    standard   0.494    10  0.0199 Preprocessor1_Model005
 6 1.78e-10 rmse    standard   0.494    10  0.0199 Preprocessor1_Model006
 7 2.00e-10 rmse    standard   0.494    10  0.0199 Preprocessor1_Model007
 8 2.25e-10 rmse    standard   0.494    10  0.0199 Preprocessor1_Model008
 9 2.52e-10 rmse    standard   0.494    10  0.0199 Preprocessor1_Model009
10 2.83e-10 rmse    standard   0.494    10  0.0199 Preprocessor1_Model010
# ℹ 190 more rows
…
