Regression & Classification Trees – ST 558 Data Science for Statisticians (R)
…
1. Split the data

#save creation of new variables for now!
bike_split <- initial_split(bike_data, prop = 0.7)
bike_train <- training(bike_split)
bike_test <- testing(bike_split)
bike_train

# A tibble: 742 x 9
   name     year seller_type owner km_driven ex_showroom_price log_selling_price
   <chr>   <dbl> <chr>       <chr>     <dbl>             <dbl>             <dbl>
 1 Bajaj ~  2012 Individual  1st ~     50000             54299             10.3 
 2 Honda ~  2015 Individual  1st ~      7672             54605             10.6 
 3 Bajaj ~  2005 Individual  1st ~     21885                NA              9.80
 4 Hero H~  2017 Individual  1st ~     27000                NA             10.5 
 5 Royal ~  2013 Individual  1st ~     49000                NA             11.4 
 6 Bajaj ~  2008 Individual  1st ~     19500                NA             10.3 
 7 Hero C~  2014 Individual  1st ~     38000                NA             10.5 
 8 Bajaj ~  2009 Individual  1st ~     16000                NA              9.90
 9 Hero H~  2008 Individual  3rd ~     65000                NA             10.1 
10 Bajaj ~  2019 Individual  1st ~      7600                NA             12.2 
# i 732 more rows
# i 2 more variables: log_km_driven <dbl>, owners <chr>
…
7. Collect Metrics and Determine the Best Model

Looking at the tree_fits object isn’t super useful. It has all the info but we need to pull it out. As we see above, we can use collect_metrics() to combine the metrics across the folds.

tree_fits |>
  collect_metrics()

# A tibble: 100 x 8
   cost_complexity tree_depth .metric .estimator  mean     n std_err .config    
             <dbl>      <int> <chr>   <chr>      <dbl> <int>   <dbl> <chr>      
 1    0.0000000001          1 rmse    standard   0.561    10  0.0190 Preprocess~
 2    0.0000000001          1 rsq     standard   0.338    10  0.0176 Preprocess~
 3    0.000000001           1 rmse    standard   0.561    10  0.0190 Preprocess~
 4    0.000000001           1 rsq     standard   0.338    10  0.0176 Preprocess~
 5    0.00000001            1 rmse    standard   0.561    10  0.0190 Preprocess~
 6    0.00000001            1 rsq     standard   0.338    10  0.0176 Preprocess~
 7    0.0000001             1 rmse    standard   0.561    10  0.0190 Preprocess~
 8    0.0000001             1 rsq     standard   0.338    10  0.0176 Preprocess~
 9    0.000001              1 rmse    standard   0.561    10  0.0190 Preprocess~
10    0.000001              1 rsq     standard   0.338    10  0.0176 Preprocess~
# i 90 more rows
…
Ideally, we probably want to sort this by the smallest rmse value. Let’s also filter down to just looking at rmse.

tree_fits |>
  collect_metrics() |>
  filter(.metric == "rmse") |>
  arrange(mean)

# A tibble: 50 x 8
   cost_complexity tree_depth .metric .estimator  mean     n std_err .config    
             <dbl>      <int> <chr>   <chr>      <dbl> <int>   <dbl> <chr>      
 1    0.0000000001          4 rmse    standard   0.496    10  0.0155 Preprocess~
 2    0.000000001           4 rmse    standard   0.496    10  0.0155 Preprocess~
 3    0.00000001            4 rmse    standard   0.496    10  0.0155 Preprocess~
 4    0.0000001             4 rmse    standard   0.496    10  0.0155 Preprocess~
 5    0.000001              4 rmse    standard   0.496    10  0.0155 Preprocess~
 6    0.00001               4 rmse    standard   0.496    10  0.0155 Preprocess~
 7    0.0001                4 rmse    standard   0.496    10  0.0155 Preprocess~
 8    0.001                 4 rmse    standard   0.497    10  0.0154 Preprocess~
 9    0.01                  4 rmse    standard   0.501    10  0.0180 Preprocess~
10    0.01                  8 rmse    standard   0.501    10  0.0180 Preprocess~
# i 40 more rows
…
