SQL Style Joins
…
# Inner Join

Combine the `Batting` table and the `Pitching` table on common variables

```r
#note this code differs slightly from what was in the video!
inner_join(tbl(con, "Batting") |> filter(yearID == 2000), 
           tbl(con, "Pitching") |> filter(yearID == 2000),
           by = c("playerID", "stint", "teamID", "lgID")) |>
  collect()
```

```
## # A tibble: 677 x 48
##   playerID yearID.x stint teamID lgID    G.x    AB   R.x   H.x   X2B   X3B  HR.x
##   <chr>       <int> <int> <chr>  <chr> <int> <int> <int> <int> <int> <int> <int>
## 1 abbotpa~     2000     1 SEA    AL       35     5     1     2     1     0     0
## 2 aceveju~     2000     1 MIL    NL       62     1     1     0     0     0     0
## 3 adamste~     2000     1 LAN    NL       66     2     0     0     0     0     0
## 4 aguilri~     2000     1 CHN    NL       54     0     0     0     0     0     0
## 5 aldresc~     2000     1 PHI    NL       23     0     0     0     0     0     0
## # i 672 more rows
## # i 36 more variables: RBI <int>, SB <int>, CS <int>, BB.x <int>, SO.x <int>,
## #   IBB.x <int>, HBP.x <int>, SH.x <int>, SF.x <int>, GIDP.x <int>,
## #   yearID.y <int>, W <int>, L <int>, G.y <int>, GS <int>, CG <int>, SHO <int>,
## #   SV <int>, IPouts <int>, H.y <int>, ER <int>, HR.y <int>, BB.y <int>,
## #   SO.y <int>, BAOpp <dbl>, ERA <dbl>, IBB.y <int>, WP <int>, HBP.y <int>,
## #   BK <int>, BFP <int>, GF <int>, R.y <int>, SH.y <int>, SF.y <int>, ...
```
…
---

# Left Join: Return left table and matching right records

```r
left_join(tbl(con, "Batting") |> filter(yearID == 2000), 
           tbl(con, "Pitching") |> filter(yearID == 2000),
           by = c("playerID", "stint", "teamID", "lgID")) |>
  collect() |>
  select(playerID, ERA, everything())
```

```
## # A tibble: 1,384 x 48
##   playerID   ERA yearID.x stint teamID lgID    G.x    AB   R.x   H.x   X2B   X3B
##   <chr>    <dbl>    <int> <int> <chr>  <chr> <int> <int> <int> <int> <int> <int>
## 1 abbotje~ NA        2000     1 CHA    AL       80   215    31    59    15     1
## 2 abbotku~ NA        2000     1 NYN    NL       79   157    22    34     7     1
## 3 abbotpa~  4.22     2000     1 SEA    AL       35     5     1     2     1     0
## 4 abreubo~ NA        2000     1 PHI    NL      154   576   103   182    42    10
## 5 aceveju~  3.81     2000     1 MIL    NL       62     1     1     0     0     0
## # i 1,379 more rows
## # i 36 more variables: HR.x <int>, RBI <int>, SB <int>, CS <int>, BB.x <int>,
## #   SO.x <int>, IBB.x <int>, HBP.x <int>, SH.x <int>, SF.x <int>, GIDP.x <int>,
## #   yearID.y <int>, W <int>, L <int>, G.y <int>, GS <int>, CG <int>, SHO <int>,
## #   SV <int>, IPouts <int>, H.y <int>, ER <int>, HR.y <int>, BB.y <int>,
## #   SO.y <int>, BAOpp <dbl>, IBB.y <int>, WP <int>, HBP.y <int>, BK <int>,
## #   BFP <int>, GF <int>, R.y <int>, SH.y <int>, SF.y <int>, GIDP.y <int>
```
…
# Right Join

- Just do a left join and switch the table (or use `right_join()`)

```r
right_join(tbl(con, "Batting") |> filter(yearID == 2000),
           tbl(con, "Pitching") |> filter(yearID == 2000),
           by = c("playerID", "stint", "teamID", "lgID")) |>
  collect() |>
  select(playerID, ERA, everything())
```

```
## # A tibble: 677 x 48
##   playerID   ERA yearID.x stint teamID lgID    G.x    AB   R.x   H.x   X2B   X3B
##   <chr>    <dbl>    <int> <int> <chr>  <chr> <int> <int> <int> <int> <int> <int>
## 1 abbotpa~  4.22     2000     1 SEA    AL       35     5     1     2     1     0
## 2 aceveju~  3.81     2000     1 MIL    NL       62     1     1     0     0     0
## 3 adamste~  3.52     2000     1 LAN    NL       66     2     0     0     0     0
## 4 aguilri~  4.91     2000     1 CHN    NL       54     0     0     0     0     0
## 5 aldresc~  5.75     2000     1 PHI    NL       23     0     0     0     0     0
## # i 672 more rows
## # i 36 more variables: HR.x <int>, RBI <int>, SB <int>, CS <int>, BB.x <int>,
## #   SO.x <int>, IBB.x <int>, HBP.x <int>, SH.x <int>, SF.x <int>, GIDP.x <int>,
## #   yearID.y <int>, W <int>, L <int>, G.y <int>, GS <int>, CG <int>, SHO <int>,
## #   SV <int>, IPouts <int>, H.y <int>, ER <int>, HR.y <int>, BB.y <int>,
## #   SO.y <int>, BAOpp <dbl>, IBB.y <int>, WP <int>, HBP.y <int>, BK <int>,
## #   BFP <int>, GF <int>, R.y <int>, SH.y <int>, SF.y <int>, GIDP.y <int>
```
…
---

# Outer Join: Return all matches from both tables

(All players are in the Batting table even if they have no at bats!)

```r
full_join(tbl(con, "Batting") |> filter(yearID == 2000),
           tbl(con, "Pitching") |> filter(yearID == 2000),
           by = c("playerID", "stint", "teamID", "lgID")) |>
  collect()
```

```
## # A tibble: 1,384 x 48
##   playerID yearID.x stint teamID lgID    G.x    AB   R.x   H.x   X2B   X3B  HR.x
##   <chr>       <int> <int> <chr>  <chr> <int> <int> <int> <int> <int> <int> <int>
## 1 abbotje~     2000     1 CHA    AL       80   215    31    59    15     1     3
## 2 abbotku~     2000     1 NYN    NL       79   157    22    34     7     1     6
## 3 abbotpa~     2000     1 SEA    AL       35     5     1     2     1     0     0
## 4 abreubo~     2000     1 PHI    NL      154   576   103   182    42    10    25
## 5 aceveju~     2000     1 MIL    NL       62     1     1     0     0     0     0
## # i 1,379 more rows
## # i 36 more variables: RBI <int>, SB <int>, CS <int>, BB.x <int>, SO.x <int>,
## #   IBB.x <int>, HBP.x <int>, SH.x <int>, SF.x <int>, GIDP.x <int>,
## #   yearID.y <int>, W <int>, L <int>, G.y <int>, GS <int>, CG <int>, SHO <int>,
## #   SV <int>, IPouts <int>, H.y <int>, ER <int>, HR.y <int>, BB.y <int>,
## #   SO.y <int>, BAOpp <dbl>, ERA <dbl>, IBB.y <int>, WP <int>, HBP.y <int>,
## #   BK <int>, BFP <int>, GF <int>, R.y <int>, SH.y <int>, SF.y <int>, ...
```
…
